<?xml version="1.0" standalone="no"?>
<!DOCTYPE svg PUBLIC "-//W3C//DTD SVG 20010904//EN"
 "http://www.w3.org/TR/2001/REC-SVG-20010904/DTD/svg10.dtd">
<svg version="1.0" xmlns="http://www.w3.org/2000/svg"
 width="1200.000000pt" height="1200.000000pt" viewBox="0 0 1200.000000 1200.000000"
 preserveAspectRatio="xMidYMid meet">
<metadata>
Created by potrace 1.14, written by Peter Selinger 2001-2017
</metadata>
<g transform="translate(0.000000,1200.000000) scale(0.100000,-0.100000)"
fill="#000000" stroke="none">
<path d="M5879 9310 c-212 -26 -386 -114 -525 -263 -107 -115 -170 -254 -147
-324 9 -25 5 -29 -58 -72 -68 -46 -195 -176 -299 -307 -173 -217 -284 -450
-342 -722 -20 -94 -23 -134 -23 -327 1 -241 17 -358 69 -486 22 -54 23 -65 11
-79 -25 -28 -58 -134 -59 -190 0 -57 3 -64 70 -170 63 -100 67 -127 68 -405 1
-267 4 -283 57 -336 19 -19 19 -20 -1 -42 -12 -12 -23 -32 -26 -44 -5 -17 -13
-23 -33 -23 -64 0 -110 -74 -111 -178 0 -68 29 -229 55 -302 15 -42 15 -44 -9
-69 -105 -113 -240 -438 -252 -607 -12 -168 35 -324 122 -404 52 -48 95 -68
172 -81 87 -14 208 19 290 77 l22 16 0 -95 0 -95 -85 -48 c-103 -57 -135 -85
-135 -117 0 -21 -7 -25 -63 -35 -76 -14 -156 -39 -301 -95 -94 -36 -118 -50
-176 -104 -117 -108 -169 -242 -170 -436 0 -181 48 -340 131 -431 41 -45 72
-66 167 -112 136 -66 214 -88 369 -105 121 -14 345 -3 548 26 127 18 176 18
245 0 30 -8 98 -18 151 -21 82 -6 107 -4 167 15 86 26 221 28 392 5 63 -8 234
-18 380 -21 298 -6 432 5 692 58 159 32 189 34 380 30 l126 -4 78 39 c66 33
82 46 107 89 40 66 142 301 163 370 l16 56 56 -7 c68 -7 170 10 226 38 50 24
112 82 133 123 9 17 16 54 16 87 0 46 -7 72 -40 140 -46 94 -69 122 -168 204
-38 32 -74 66 -80 75 -5 9 -30 54 -53 100 -24 46 -52 98 -62 114 -10 18 -20
61 -23 105 -9 112 -56 284 -132 480 -37 96 -101 272 -142 390 -81 236 -103
281 -203 415 -36 50 -83 117 -104 150 -46 72 -98 129 -148 161 -30 19 -51 24
-103 24 -51 0 -80 6 -132 30 -74 34 -126 70 -148 104 -14 20 -12 27 19 86 33
62 35 63 44 40 31 -78 163 -153 293 -167 70 -7 173 24 212 65 36 38 67 110 67
157 0 22 -17 85 -37 140 -48 135 -63 205 -62 305 0 100 17 201 54 325 87 291
91 337 35 407 -30 36 -31 41 -19 75 13 39 6 256 -12 408 -44 358 -219 755
-423 954 -76 75 -136 120 -277 207 -74 46 -106 71 -99 78 19 19 11 109 -15
165 -54 116 -163 212 -330 292 -172 82 -400 121 -576 99z m927 -1740 c68 -17
137 -41 163 -58 47 -29 135 -128 152 -172 43 -108 61 -398 49 -766 -13 -357
-45 -531 -134 -716 -93 -194 -151 -252 -340 -346 -222 -110 -481 -182 -653
-182 -109 0 -256 22 -337 50 -167 57 -417 237 -517 372 -136 184 -253 438
-265 578 -3 30 -11 93 -19 140 -8 47 -21 148 -30 225 -9 77 -21 165 -26 195
-5 30 -10 109 -11 176 l-3 121 43 85 c68 134 123 182 281 243 135 52 229 63
378 42 335 -47 529 -44 848 13 213 37 274 37 421 0z m793 -565 c21 -31 23 -43
18 -98 -2 -34 -26 -125 -51 -202 -101 -306 -111 -466 -41 -670 52 -153 56
-174 44 -219 -30 -112 -174 -158 -313 -101 -69 28 -144 77 -168 110 -17 22
-16 26 11 93 64 155 91 295 98 512 5 154 7 169 33 227 43 93 104 178 199 277
115 118 133 125 170 71z m-2963 -334 c19 -22 55 -51 79 -66 46 -27 85 -76 127
-160 24 -47 37 -86 88 -263 28 -96 80 -220 125 -295 l36 -61 -16 -43 c-10 -25
-32 -64 -51 -89 -19 -24 -34 -51 -34 -59 0 -10 -8 -7 -24 10 -34 34 -71 41
-112 22 -19 -9 -34 -21 -34 -27 0 -5 -8 -10 -18 -10 -16 0 -59 44 -88 90 -5 8
-12 128 -15 265 -6 287 -11 306 -102 441 -44 66 -50 81 -49 123 1 41 36 161
48 161 2 0 20 -18 40 -39z m609 -1028 l50 -52 -59 -61 c-32 -33 -59 -59 -61
-58 -1 2 -7 22 -13 45 -15 50 -71 113 -101 113 -27 0 -27 2 12 63 18 29 37 61
41 72 6 18 11 15 44 -25 20 -25 59 -68 87 -97z m1794 -52 c23 -19 67 -41 97
-51 l56 -17 -30 -12 c-36 -15 -69 -63 -102 -146 -39 -102 -135 -290 -192 -377
-62 -95 -116 -162 -274 -338 -207 -232 -316 -321 -584 -473 -106 -61 -494
-200 -800 -288 -79 -22 -168 -52 -197 -65 l-53 -23 0 97 0 98 49 37 c117 87
218 329 363 872 82 304 95 415 60 485 -37 75 -86 44 -162 -100 -29 -55 -56
-100 -61 -100 -5 0 -9 24 -10 53 0 28 -3 83 -8 122 l-7 69 64 61 c35 33 68 61
72 63 5 2 51 -27 104 -63 119 -83 257 -148 383 -182 87 -24 117 -27 263 -27
141 0 178 3 255 23 165 43 307 105 440 195 93 62 184 136 196 159 11 19 12 19
24 -10 7 -16 31 -44 54 -62z m-2111 26 c35 -37 60 -107 72 -202 17 -127 24
-158 37 -162 33 -11 28 172 -7 276 -11 35 -18 66 -15 69 3 3 21 -2 41 -11 48
-23 66 -69 99 -252 14 -82 29 -158 31 -167 13 -44 53 -4 139 137 40 66 70 88
86 64 27 -43 -1 -232 -65 -434 -14 -44 -43 -150 -65 -235 -75 -287 -177 -526
-261 -610 -61 -61 -221 -167 -266 -176 -20 -4 -66 -4 -103 -2 -111 8 -202 71
-255 176 -43 84 -59 287 -32 387 27 101 130 324 199 434 45 71 48 69 61 -26 5
-43 3 -58 -13 -80 -10 -16 -49 -75 -87 -133 -37 -58 -85 -131 -106 -164 -21
-32 -37 -60 -35 -63 9 -8 104 107 169 204 112 165 118 209 64 425 -57 225 -57
335 -2 387 l25 23 21 -42 c12 -23 30 -87 41 -143 13 -68 25 -108 39 -121 18
-18 20 -19 26 -2 8 22 -31 204 -59 270 -20 47 -20 49 -1 83 42 79 99 79 134 0
15 -32 20 -65 20 -143 0 -117 7 -164 25 -164 19 0 25 34 25 151 0 118 -16 183
-56 220 l-25 23 23 13 c33 18 52 16 76 -10z m2312 -117 c-8 -5 -19 -10 -25
-10 -5 0 -3 5 5 10 8 5 20 10 25 10 6 0 3 -5 -5 -10z m161 -40 c15 -12 54 -60
86 -108 31 -48 70 -104 85 -124 22 -28 41 -82 79 -225 27 -103 67 -242 89
-308 65 -202 91 -367 70 -447 -11 -38 -10 -41 34 -92 25 -30 43 -56 39 -59
-13 -13 207 -394 242 -419 5 -4 6 -8 1 -8 -19 0 -145 98 -214 167 -78 78 -82
75 -31 -32 52 -111 104 -164 268 -274 196 -132 206 -147 206 -307 0 -104 -2
-113 -27 -152 -15 -22 -41 -55 -57 -71 -27 -28 -37 -31 -91 -31 l-60 0 0 90
c0 103 -10 135 -98 313 -32 64 -57 117 -56 117 1 0 9 -6 16 -13 55 -53 128
-80 203 -75 l50 3 -45 24 c-62 33 -117 78 -245 203 -112 109 -181 168 -196
168 -5 0 -33 22 -63 49 -57 51 -105 72 -215 91 -93 17 -262 -9 -330 -51 -32
-20 -127 -154 -137 -196 -4 -12 -10 -23 -14 -23 -23 0 -14 106 13 159 37 71
58 97 127 159 211 189 261 259 264 368 2 88 -13 86 -87 -13 -36 -48 -81 -103
-100 -121 l-34 -33 22 78 c41 142 59 269 59 428 1 117 -3 156 -15 178 -15 28
-15 28 -33 8 -10 -11 -20 -35 -22 -53 -7 -65 -43 -295 -59 -383 -48 -257 -78
-334 -172 -445 -88 -103 -126 -181 -126 -262 0 -77 10 -127 32 -153 l16 -20
-24 20 c-20 17 -37 20 -115 20 -50 -1 -120 -7 -156 -15 -85 -19 -370 -20 -507
-1 l-102 14 -51 -26 c-39 -20 -56 -24 -70 -17 -10 6 -34 10 -52 11 -18 0 -26
3 -18 6 83 29 232 108 385 203 39 24 108 65 154 92 47 28 105 64 130 81 140
96 276 225 376 359 47 63 171 259 227 358 79 140 98 180 87 180 -7 0 -9 3 -5
8 4 4 10 6 13 4 18 -10 99 206 83 222 -15 15 -36 -9 -89 -109 -74 -139 -137
-240 -205 -332 -185 -248 -532 -533 -911 -748 -158 -90 -403 -207 -487 -233
-140 -44 -341 -66 -378 -42 -13 8 -13 10 2 10 26 0 185 71 295 132 575 318
813 460 938 559 33 25 114 86 180 134 155 113 236 185 293 259 48 62 214 402
252 516 27 81 65 158 92 187 12 13 44 27 77 34 31 7 60 16 66 21 12 11 13 11
46 -12z m-436 -420 c3 -5 1 -10 -4 -10 -6 0 -11 5 -11 10 0 6 2 10 4 10 3 0 8
-4 11 -10z m-183 -257 c-16 -21 -40 -47 -53 -58 -13 -11 -1 8 26 41 28 34 52
60 54 58 2 -2 -10 -20 -27 -41z m438 -4 c0 -6 -4 -7 -10 -4 -5 3 -10 11 -10
16 0 6 5 7 10 4 6 -3 10 -11 10 -16z m320 -895 c69 -20 123 -59 149 -105 38
-66 23 -179 -31 -236 -44 -47 -82 -20 -82 59 0 45 4 54 32 78 43 36 42 54 -2
47 -29 -5 -35 -2 -45 19 -6 14 -11 34 -11 44 0 24 -15 26 -24 4 -10 -27 -7
-59 10 -82 13 -19 13 -28 4 -58 -7 -20 -10 -51 -7 -69 5 -28 1 -36 -18 -49
-22 -14 -23 -14 -30 12 -10 39 -34 62 -67 62 -32 0 -84 -24 -90 -41 -2 -7 -14
-5 -34 7 -37 21 -99 13 -117 -16 -11 -19 -12 -18 -27 12 -23 47 -44 56 -76 32
-15 -11 -35 -35 -45 -54 l-19 -35 0 37 c0 72 66 218 131 293 29 33 55 42 164
59 53 8 178 -3 235 -20z m-2213 -20 c-3 -3 -12 -4 -19 -1 -8 3 -5 6 6 6 11 1
17 -2 13 -5z m438 -164 c-3 -5 -12 -10 -18 -10 -7 0 -6 4 3 10 19 12 23 12 15
0z m2066 -77 c13 -16 12 -17 -3 -4 -10 7 -18 15 -18 17 0 8 8 3 21 -13z m-56
-13 c3 -6 -1 -7 -9 -4 -18 7 -21 14 -7 14 6 0 13 -4 16 -10z m-2422 -17 c-7
-2 -19 -2 -25 0 -7 3 -2 5 12 5 14 0 19 -2 13 -5z m-50 -29 c31 -5 37 -9 30
-23 -4 -9 -7 -50 -6 -91 1 -57 9 -94 32 -155 71 -183 66 -267 -28 -524 -42
-113 -74 -242 -86 -342 -8 -66 -6 -64 -151 -76 -89 -6 -113 -2 -349 69 -214
64 -361 155 -458 281 -77 101 -102 191 -95 336 7 118 37 210 111 333 49 82 55
89 104 108 71 27 232 66 323 79 41 6 86 13 100 15 33 6 424 -3 473 -10z m1811
0 c11 -28 6 -124 -7 -157 -19 -44 -44 -64 -60 -48 -33 33 3 221 43 221 10 0
21 -7 24 -16z m327 -6 c15 -27 7 -182 -11 -220 -16 -34 -30 -35 -67 -4 -28 24
-29 27 -28 113 0 94 5 110 39 123 35 14 55 11 67 -12z m-623 -3 c10 -9 -7 -17
-54 -26 -51 -10 -94 -33 -94 -50 0 -7 8 -9 23 -4 12 5 61 10 110 12 87 4 87 4
87 -20 0 -31 -12 -40 -80 -66 -57 -21 -108 -52 -227 -133 -132 -90 -401 -191
-557 -210 -98 -11 -99 -10 -166 129 -43 88 -50 111 -50 162 0 53 4 63 35 101
19 23 35 47 35 54 0 7 21 23 46 35 49 25 52 25 199 1 111 -18 336 -17 445 3
52 9 109 19 125 21 34 4 116 -1 123 -9z m471 -36 c22 -63 9 -165 -27 -210 -15
-18 -22 -20 -39 -11 -36 20 -63 90 -63 164 0 63 1 67 28 76 15 6 41 11 59 11
26 1 33 -4 42 -30z m-1461 2 c10 -6 6 -16 -17 -40 -67 -72 -63 -168 15 -326
61 -122 84 -145 146 -145 26 0 48 -4 48 -10 0 -5 -4 -10 -10 -10 -15 0 -37
-50 -45 -100 -16 -106 -46 -193 -81 -236 -20 -24 -44 -46 -54 -49 -24 -8 -73
17 -93 48 -37 57 -39 186 -4 283 22 59 31 198 18 269 -21 116 -97 232 -180
275 l-36 18 35 16 c38 17 234 22 258 7z m1731 -25 c19 -22 17 -90 -2 -120 -18
-27 -66 -37 -68 -13 -11 98 32 179 70 133z m223 -111 c34 -5 39 -10 57 -59 57
-152 65 -338 21 -466 -22 -66 -93 -181 -133 -217 -45 -40 -432 -170 -786 -263
-113 -29 -296 -26 -382 8 -129 51 -223 123 -347 266 -89 102 -90 107 -12 47
57 -44 185 -105 275 -132 99 -30 316 -37 443 -15 160 28 303 87 331 137 22 39
8 77 -37 96 -33 14 -54 14 -182 4 -112 -10 -174 -10 -270 -1 -212 19 -428 65
-553 116 -33 13 -69 24 -79 24 -15 0 -18 8 -18 49 0 48 1 49 35 55 33 6 41 3
87 -39 121 -109 317 -164 537 -152 244 13 549 102 618 179 14 16 5 13 -37 -10
-30 -17 -90 -40 -133 -52 -82 -23 -119 -23 -45 0 41 12 118 47 118 54 0 1 -28
-3 -62 -11 -135 -28 -300 -37 -456 -25 -150 12 -237 30 -374 80 l-77 28 112
49 c62 27 162 83 222 123 110 74 120 79 207 112 l47 18 11 -27 c29 -69 80 -99
177 -105 37 -3 88 -12 113 -21 74 -26 152 -30 217 -11 98 29 110 36 180 98 70
62 96 77 123 72 8 -2 32 -6 52 -9z m-3622 -74 c-5 -11 -15 -23 -22 -27 -7 -5
-8 -2 -3 7 21 37 44 55 25 20z m2230 -353 c36 -16 53 -27 37 -23 -41 8 -128
52 -162 81 -30 25 -29 25 15 -2 25 -15 74 -41 110 -56z m698 -205 c-10 -2 -26
-2 -35 0 -10 3 -2 5 17 5 19 0 27 -2 18 -5z m119 -35 c-3 -8 -6 -5 -6 6 -1 11
2 17 5 13 3 -3 4 -12 1 -19z m-1132 -102 c18 -38 73 -99 123 -136 l34 -25
-131 0 c-72 0 -131 1 -131 2 0 1 18 39 40 84 22 46 40 89 40 96 0 22 8 15 25
-21z"/>
<path d="M6375 6996 c-64 -18 -145 -55 -145 -65 0 -4 44 1 98 10 53 10 125 18
159 19 107 0 287 -42 326 -77 9 -9 17 -11 17 -5 0 20 -83 82 -139 103 -72 28
-242 36 -316 15z"/>
<path d="M5357 6975 c-27 -7 -72 -25 -101 -39 -51 -25 -104 -71 -94 -81 3 -3
39 10 79 30 144 68 289 80 460 36 85 -21 86 -8 3 34 -55 27 -68 30 -179 32
-78 1 -137 -3 -168 -12z"/>
<path d="M6721 6687 c-34 -41 -116 -76 -194 -84 -75 -7 -179 20 -240 61 -49
34 -56 16 -12 -32 69 -77 211 -112 315 -77 61 20 127 76 147 124 18 43 14 45
-16 8z"/>
<path d="M5686 6670 c-41 -47 -127 -82 -214 -88 -61 -4 -86 0 -158 23 -46 15
-88 24 -92 20 -12 -12 44 -52 105 -76 65 -25 186 -30 238 -10 51 20 102 61
130 103 34 51 28 69 -9 28z"/>
<path d="M5960 6258 c-25 -13 -46 -31 -48 -41 -3 -16 0 -16 38 4 51 27 147 24
179 -5 26 -23 54 -14 49 16 -4 31 -43 48 -113 48 -43 0 -74 -6 -105 -22z"/>
<path d="M6281 5958 c-30 -50 -101 -115 -143 -133 -113 -47 -252 5 -331 125
-32 46 -20 -12 12 -62 77 -121 230 -162 359 -97 86 42 163 140 146 184 -9 23
-20 18 -43 -17z"/>
<path d="M7355 6678 c-99 -57 -148 -347 -100 -597 23 -121 51 -155 95 -111 18
18 20 32 17 157 l-2 138 41 100 c54 129 69 200 54 254 -16 60 -60 85 -105 59z
m66 -55 c6 -16 8 -47 5 -70 -5 -40 -13 -64 -74 -228 -23 -62 -26 -85 -27 -197
0 -78 -4 -128 -10 -129 -5 0 -19 30 -29 68 -39 137 -22 412 30 516 37 73 85
91 105 40z"/>
<path d="M4698 6482 c-42 -9 -34 -81 28 -252 37 -103 38 -108 40 -255 2 -127
5 -150 18 -153 41 -9 87 87 108 226 24 149 -27 333 -109 401 -38 32 -58 39
-85 33z m64 -69 c21 -21 47 -60 60 -88 21 -45 23 -64 22 -185 0 -115 -4 -143
-22 -190 -22 -55 -22 -55 -17 -15 8 68 -13 210 -46 302 -17 49 -37 113 -44
143 -19 83 -8 90 47 33z"/>
</g>
</svg>
